swarm2: 14.300
swarm5: 20.100
swarm0: 109.200
swarm4: 179.500
swarm2: 14.800
swarm4: 38.600
swarm2: 13.500
swarm5: 19.100
swarm2: 14.200
swarm5: 47.200
swarm2: 14.500
swarm5: 21.300
swarm2: 14.800
swarm5: 42.600
swarm0: 83.400
swarm4: 201.000
swarm2: 13.800
swarm5: 19.600
swarm0: 221.700
swarm2: 17.300
swarm5: 52.500
swarm5: 22.800
swarm2: 23.600
swarm5: 23.800
swarm4: 28.800
swarm5: 76.700
swarm2: 85.200
swarm2: 15.800
swarm4: 31.300
swarm5: 48.500
swarm2: 16.300
swarm4: 29.300
swarm2: 19.800
swarm4: 41.200
swarm2: 16.500
swarm4: 69.900
swarm2: 16.100
swarm4: 32.400
swarm3: 98.400
swarm5: 151.700
swarm2: 16.600
swarm4: 31.300
swarm5: 42.400
swarm2: 15.300
swarm4: 30.800
swarm5: 42.000
swarm3: 112.700
swarm2: 33.700
swarm5: 61.400
swarm0: 109.200
swarm3: 19.100
swarm5: 69.600
swarm4: 299.600
swarm5: 27.300
swarm2: 38.200
swarm0: 49.900
swarm4: 95.400
swarm2: 10.200
swarm3: 10.200
swarm5: 33.900
swarm2: 10.000
swarm5: 109.700
swarm3: 138.800
swarm2: 25.000
swarm5: 44.100
swarm3: 35.700
swarm1: 86.100
swarm0: 223.000
swarm5: 44.100
swarm1: 81.600
swarm0: 127.400
swarm4: 19.600
swarm3: 8.300
swarm2: 60.900
swarm4: 158.800
swarm0: 185.800
