Removed Pin From Net: NetName=VSSA Pin=C24-1
Removed Pin From Net: NetName=VDDA Pin=C24-2
Removed Pin From Net: NetName=VREFN Pin=C26-1
Removed Pin From Net: NetName=VREFP Pin=C26-2
Removed Pin From Net: NetName=VSSA Pin=L2-1
Removed Pin From Net: NetName=VDDA Pin=L2-2
Removed Pin From Net: NetName=3.3V Pin=L2-3
Removed Pin From Net: NetName=GND Pin=L2-4
Removed Pin From Net: NetName=VREFN Pin=L3-1
Removed Pin From Net: NetName=VREFP Pin=L3-2
Removed Pin From Net: NetName=3.3V Pin=L3-3
Removed Pin From Net: NetName=GND Pin=L3-4
Added Pin To Net: NetName=VDDA Pin=C24-1
Added Pin To Net: NetName=VSSA Pin=C24-2
Added Pin To Net: NetName=VREFP Pin=C26-1
Added Pin To Net: NetName=VREFN Pin=C26-2
Added Pin To Net: NetName=VDDA Pin=L2-1
Added Pin To Net: NetName=VSSA Pin=L2-2
Added Pin To Net: NetName=GND Pin=L2-3
Added Pin To Net: NetName=3.3V Pin=L2-4
Added Pin To Net: NetName=VREFP Pin=L3-1
Added Pin To Net: NetName=VREFN Pin=L3-2
Added Pin To Net: NetName=GND Pin=L3-3
Added Pin To Net: NetName=3.3V Pin=L3-4
