Removed Pin From Net: NetName=NetC10_1 Pin=C10-1
Removed Pin From Net: NetName=NEG_LO Pin=R205-2
Removed Member From Class: ClassName=B2 Member=Q9
Removed Member From Class: ClassName=B2 Member=Q10
Added Pin To Net: NetName=3.3V Pin=C10-1
Added Pin To Net: NetName=NEG_HI Pin=DD100-1
Added Pin To Net: NetName=POS_LO Pin=DD100-4
Added Pin To Net: NetName=NEG_HI Pin=DD100-5
Added Pin To Net: NetName=NEG_LO Pin=DD100-10
Added Pin To Net: NetName=NEG_HI Pin=DD100-11
Added Pin To Net: NetName=NEG_HI Pin=DD100-12
Added Pin To Net: NetName=POS_HI Pin=DD100-13
Added Pin To Net: NetName=POS_HI Pin=R101-1
Added Pin To Net: NetName=POS_LO Pin=R104-1
Added Pin To Net: NetName=NEG_LO Pin=R105-2
Added Pin To Net: NetName=NEG_LO Pin=R205-2
Change Net Name : Old Net Name=NetC10_1 New Net Name=NetR14_2
Added Room: Name=B0
Added Room: Name=B7
Added Room: Name=mainboard
