Removed Pin From Net: NetName=NetD9_1 Pin=D11-1
Removed Pin From Net: NetName=NetD9_2 Pin=R50-1
Removed Pin From Net: NetName=NetD12_2 Pin=R51-1
Removed Pin From Net: NetName=NetD9_1 Pin=U3-1
Change Component Designator: OldDesignator=R50 NewDesignator=R51
Change Component Designator: OldDesignator=R51 NewDesignator=R50
Added Pin To Net: NetName=NetD9_1 Pin=D10-1
Added Pin To Net: NetName=NetD9_2 Pin=R50-1
Added Pin To Net: NetName=NetD12_2 Pin=R51-1
Added Pin To Net: NetName=NetD9_1 Pin=U3-4
Added Pin To Net: NetName=NetD11_1 Pin=D11-1
Added Pin To Net: NetName=NetD11_1 Pin=D12-1
Added Pin To Net: NetName=NetD11_1 Pin=U3-1
Added Net: Name=NetD11_1
