Removed Pin From Net: NetName=3.3V Pin=C9-1
Removed Pin From Net: NetName=GND Pin=C9-2
Removed Pin From Net: NetName=3.3V Pin=R2-1
Removed Pin From Net: NetName=JTDI Pin=R2-2
Removed Pin From Net: NetName=NetCN2_17 Pin=R12-1
Removed Pin From Net: NetName=GND Pin=R12-2
Removed Pin From Net: NetName=NetCN2_19 Pin=R13-1
Removed Pin From Net: NetName=GND Pin=R13-2
Removed Pin From Net: NetName=USB_N Pin=R14-2
Removed Pin From Net: NetName=POS_HI Pin=R201-1
Removed Pin From Net: NetName=POS_LO Pin=R204-1
Removed Pin From Net: NetName=3.3V Pin=U2-10
Change Component Comment : Designator=R13 Old Comment=10k New Comment=1k
Change Component Comment : Designator=R2 Old Comment=10k New Comment=22
Change Component Comment : Designator=R12 Old Comment=10k New Comment=22
Change Component Comment : Designator=R14 Old Comment=22 New Comment=
Added Component: Designator=C3(SMDR0603[1608])
Added Component: Designator=C4(SMDR0603[1608])
Added Component: Designator=C5(SMDR0603[1608])
Added Component: Designator=C6(SMDR0603[1608])
Added Component: Designator=C7(SMDR0603[1608])
Added Component: Designator=C8(SMDR0603[1608])
Added Component: Designator=C10(Cap_Tan_TypeA)
Added Component: Designator=C12(SMDR0603[1608])
Added Component: Designator=C13(SMDR0603[1608])
Added Component: Designator=C14(SMDR0603[1608])
Added Component: Designator=C15(SMDR0603[1608])
Added Component: Designator=C16(SMDR0603[1608])
Added Component: Designator=C17(SMDR0603[1608])
Added Component: Designator=C18(SMDR0603[1608])
Added Component: Designator=C19(SMDR0603[1608])
Added Component: Designator=C24(SMDR0603[1608])
Added Component: Designator=C25(Cap_Tan_TypeA)
Added Component: Designator=C26(SMDR0603[1608])
Added Component: Designator=C27(Cap_Tan_TypeA)
Added Component: Designator=C28(SMDR0603[1608])
Added Component: Designator=C29(Cap_Tan_TypeA)
Added Component: Designator=C46(SMDR0603[1608])
Added Component: Designator=C47(SMDR0603[1608])
Added Component: Designator=CN2(HDR2X10)
Added Component: Designator=D13(PLCC155P540X540X200-12N)
Added Component: Designator=D14(LED 1206)
Added Component: Designator=D15(LED 1206)
Added Component: Designator=D16(LED 1206)
Added Component: Designator=DD1(LCCS200P1900X1700X300-14N)
Added Component: Designator=DD2(XBEE_DIP20)
Added Component: Designator=DD100(D014_N)
Added Component: Designator=DD200(D014_N)
Added Component: Designator=L2(GSPWC1206ST)
Added Component: Designator=L3(GSPWC1206ST)
Added Component: Designator=OSC1(KX-26)
Added Component: Designator=OSC2(KX-KS)
Added Component: Designator=P7(SMB_V-RJ45)
Added Component: Designator=P8(HDR1X4)
Added Component: Designator=P9(HDR2X3)
Added Component: Designator=P10(HDR2X8)
Added Component: Designator=P11(HDR1X4)
Added Component: Designator=Q9(SOT-23)
Added Component: Designator=Q10(SOT-23A)
Added Component: Designator=R3(SMDR0603[1608])
Added Component: Designator=R4(SMDR0603[1608])
Added Component: Designator=R5(SMDR0603[1608])
Added Component: Designator=R6(SMDR0603[1608])
Added Component: Designator=R7(SMDR0603[1608])
Added Component: Designator=R8(SMDR0603[1608])
Added Component: Designator=R9(SMDR0603[1608])
Added Component: Designator=R10(SMDR0603[1608])
Added Component: Designator=R11(SMDR0603[1608])
Added Component: Designator=R15(SMDR0603[1608])
Added Component: Designator=R16(SMDR0603[1608])
Added Component: Designator=R17(SMDR0603[1608])
Added Component: Designator=R55(SMDR0603[1608])
Added Component: Designator=R56(SMDR0603[1608])
Added Component: Designator=R57(SMDR0603[1608])
Added Component: Designator=R58(SMDR0603[1608])
Added Component: Designator=R59(SMDR0603[1608])
Added Component: Designator=R60(SMDR0603[1608])
Added Component: Designator=R61(SMDR0603[1608])
Added Component: Designator=R62(SMDR0603[1608])
Added Component: Designator=SPK1(HCM12)
Added Component: Designator=U1(SOT407-1_N)
Added Component: Designator=U7(751A-03_N)
Added Component: Designator=U19(SO8_N)
Added Component: Designator=VT100(Micro8)
Added Component: Designator=VT101(Micro8)
Added Component: Designator=VT200(Micro8)
Added Component: Designator=VT201(Micro8)
Added Pin To Net: NetName=3.3V Pin=C3-1
Added Pin To Net: NetName=GND Pin=C3-2
Added Pin To Net: NetName=3.3V Pin=C4-1
Added Pin To Net: NetName=GND Pin=C4-2
Added Pin To Net: NetName=3.3V Pin=C5-1
Added Pin To Net: NetName=GND Pin=C5-2
Added Pin To Net: NetName=3.3V Pin=C6-1
Added Pin To Net: NetName=GND Pin=C6-2
Added Pin To Net: NetName=3.3V Pin=C7-1
Added Pin To Net: NetName=GND Pin=C7-2
Added Pin To Net: NetName=3.3V Pin=C8-1
Added Pin To Net: NetName=GND Pin=C8-2
Added Pin To Net: NetName=GND Pin=C9-1
Added Pin To Net: NetName=R\E\S\E\T\ Pin=C9-2
Added Pin To Net: NetName=GND Pin=C10-2
Added Pin To Net: NetName=3.3V Pin=C12-1
Added Pin To Net: NetName=GND Pin=C12-2
Added Pin To Net: NetName=3.3V Pin=C13-1
Added Pin To Net: NetName=GND Pin=C13-2
Added Pin To Net: NetName=GND Pin=C14-2
Added Pin To Net: NetName=GND Pin=C15-2
Added Pin To Net: NetName=GND Pin=C16-2
Added Pin To Net: NetName=GND Pin=C17-2
Added Pin To Net: NetName=3.3V Pin=C18-1
Added Pin To Net: NetName=GND Pin=C18-2
Added Pin To Net: NetName=3.3V Pin=C19-1
Added Pin To Net: NetName=GND Pin=C19-2
Added Pin To Net: NetName=VDDA Pin=C24-1
Added Pin To Net: NetName=VSSA Pin=C24-2
Added Pin To Net: NetName=3.3V Pin=C25-1
Added Pin To Net: NetName=GND Pin=C25-2
Added Pin To Net: NetName=VREFP Pin=C26-1
Added Pin To Net: NetName=VREFN Pin=C26-2
Added Pin To Net: NetName=3.3V Pin=C27-1
Added Pin To Net: NetName=GND Pin=C27-2
Added Pin To Net: NetName=3.3V Pin=C28-1
Added Pin To Net: NetName=GND Pin=C28-2
Added Pin To Net: NetName=CPWR Pin=C29-1
Added Pin To Net: NetName=GND Pin=C29-2
Added Pin To Net: NetName=3.3V Pin=C46-1
Added Pin To Net: NetName=GND Pin=C46-2
Added Pin To Net: NetName=NetC47_1 Pin=C47-1
Added Pin To Net: NetName=GND Pin=C47-2
Added Pin To Net: NetName=3.3V Pin=CN2-1
Added Pin To Net: NetName=3.3V Pin=CN2-2
Added Pin To Net: NetName=NJTRST Pin=CN2-3
Added Pin To Net: NetName=GND Pin=CN2-4
Added Pin To Net: NetName=JTDI Pin=CN2-5
Added Pin To Net: NetName=GND Pin=CN2-6
Added Pin To Net: NetName=JTMS Pin=CN2-7
Added Pin To Net: NetName=GND Pin=CN2-8
Added Pin To Net: NetName=JTCK Pin=CN2-9
Added Pin To Net: NetName=GND Pin=CN2-10
Added Pin To Net: NetName=JRTCK Pin=CN2-11
Added Pin To Net: NetName=GND Pin=CN2-12
Added Pin To Net: NetName=JTDO Pin=CN2-13
Added Pin To Net: NetName=GND Pin=CN2-14
Added Pin To Net: NetName=R\E\S\E\T\ Pin=CN2-15
Added Pin To Net: NetName=GND Pin=CN2-16
Added Pin To Net: NetName=NetCN2_17 Pin=CN2-17
Added Pin To Net: NetName=GND Pin=CN2-18
Added Pin To Net: NetName=NetCN2_19 Pin=CN2-19
Added Pin To Net: NetName=GND Pin=CN2-20
Added Pin To Net: NetName=NetD13_1 Pin=D13-1
Added Pin To Net: NetName=NetD13_2 Pin=D13-2
Added Pin To Net: NetName=GND Pin=D13-4
Added Pin To Net: NetName=GND Pin=D13-5
Added Pin To Net: NetName=GND Pin=D13-6
Added Pin To Net: NetName=GND Pin=D14-1
Added Pin To Net: NetName=NetD14_1 Pin=D14-2
Added Pin To Net: NetName=GND Pin=D15-1
Added Pin To Net: NetName=NetD15_1 Pin=D15-2
Added Pin To Net: NetName=NetD16_2 Pin=D16-1
Added Pin To Net: NetName=NetD16_1 Pin=D16-2
Added Pin To Net: NetName=3.3V Pin=DD1-7
Added Pin To Net: NetName=GND Pin=DD1-8
Added Pin To Net: NetName=3.3V Pin=DD2-1
Added Pin To Net: NetName=GND Pin=DD2-10
Added Pin To Net: NetName=NEG_HI Pin=DD100-1
Added Pin To Net: NetName=MOTOR 0 DIR Pin=DD100-2
Added Pin To Net: NetName=MOTOR 0 DIR Pin=DD100-3
Added Pin To Net: NetName=POS_LO Pin=DD100-4
Added Pin To Net: NetName=NEG_HI Pin=DD100-5
Added Pin To Net: NetName=MOTOR 0 PWM Pin=DD100-6
Added Pin To Net: NetName=GND Pin=DD100-7
Added Pin To Net: NetName=MOTOR 0 DIR Pin=DD100-8
Added Pin To Net: NetName=MOTOR 0 PWM Pin=DD100-9
Added Pin To Net: NetName=NEG_LO Pin=DD100-10
Added Pin To Net: NetName=NEG_HI Pin=DD100-11
Added Pin To Net: NetName=NEG_HI Pin=DD100-12
Added Pin To Net: NetName=POS_HI Pin=DD100-13
Added Pin To Net: NetName=3.3V Pin=DD100-14
Added Pin To Net: NetName=NEG_HI Pin=DD200-1
Added Pin To Net: NetName=MOTOR 1 DIR Pin=DD200-2
Added Pin To Net: NetName=MOTOR 1 DIR Pin=DD200-3
Added Pin To Net: NetName=POS_LO Pin=DD200-4
Added Pin To Net: NetName=NEG_HI Pin=DD200-5
Added Pin To Net: NetName=MOTOR 1 PWM Pin=DD200-6
Added Pin To Net: NetName=GND Pin=DD200-7
Added Pin To Net: NetName=MOTOR 1 DIR Pin=DD200-8
Added Pin To Net: NetName=MOTOR 1 PWM Pin=DD200-9
Added Pin To Net: NetName=NEG_LO Pin=DD200-10
Added Pin To Net: NetName=NEG_HI Pin=DD200-11
Added Pin To Net: NetName=NEG_HI Pin=DD200-12
Added Pin To Net: NetName=POS_HI Pin=DD200-13
Added Pin To Net: NetName=3.3V Pin=DD200-14
Added Pin To Net: NetName=VDDA Pin=L2-1
Added Pin To Net: NetName=VSSA Pin=L2-2
Added Pin To Net: NetName=GND Pin=L2-3
Added Pin To Net: NetName=3.3V Pin=L2-4
Added Pin To Net: NetName=VREFP Pin=L3-1
Added Pin To Net: NetName=VREFN Pin=L3-2
Added Pin To Net: NetName=GND Pin=L3-3
Added Pin To Net: NetName=3.3V Pin=L3-4
Added Pin To Net: NetName=3.3V Pin=P8-1
Added Pin To Net: NetName=SDA0 Pin=P8-2
Added Pin To Net: NetName=SCL0 Pin=P8-3
Added Pin To Net: NetName=GND Pin=P8-4
Added Pin To Net: NetName=3.3V Pin=P9-1
Added Pin To Net: NetName=GND Pin=P9-2
Added Pin To Net: NetName=SSEL1 Pin=P9-3
Added Pin To Net: NetName=SCK1 Pin=P9-4
Added Pin To Net: NetName=MISO1 Pin=P9-5
Added Pin To Net: NetName=MOSI1 Pin=P9-6
Added Pin To Net: NetName=3.3V Pin=P10-1
Added Pin To Net: NetName=GND Pin=P10-2
Added Pin To Net: NetName=U0 Pin=P10-3
Added Pin To Net: NetName=U1 Pin=P10-4
Added Pin To Net: NetName=U2 Pin=P10-5
Added Pin To Net: NetName=U3 Pin=P10-6
Added Pin To Net: NetName=U4 Pin=P10-7
Added Pin To Net: NetName=U5 Pin=P10-8
Added Pin To Net: NetName=U6 Pin=P10-9
Added Pin To Net: NetName=U7 Pin=P10-10
Added Pin To Net: NetName=U8 Pin=P10-11
Added Pin To Net: NetName=U9 Pin=P10-12
Added Pin To Net: NetName=U10 Pin=P10-13
Added Pin To Net: NetName=U11 Pin=P10-14
Added Pin To Net: NetName=U12 Pin=P10-15
Added Pin To Net: NetName=U13 Pin=P10-16
Added Pin To Net: NetName=3.3V Pin=P11-1
Added Pin To Net: NetName=GND Pin=P11-4
Added Pin To Net: NetName=NetQ9_1 Pin=Q9-1
Added Pin To Net: NetName=GND Pin=Q9-2
Added Pin To Net: NetName=NetQ10_1 Pin=Q10-1
Added Pin To Net: NetName=3.3V Pin=Q10-2
Added Pin To Net: NetName=USB_P Pin=R2-2
Added Pin To Net: NetName=3.3V Pin=R3-1
Added Pin To Net: NetName=NJTRST Pin=R3-2
Added Pin To Net: NetName=NetQ10_1 Pin=R4-1
Added Pin To Net: NetName=3.3V Pin=R4-2
Added Pin To Net: NetName=NetQ10_1 Pin=R5-1
Added Pin To Net: NetName=USB_CONNECT Pin=R5-2
Added Pin To Net: NetName=USB_P Pin=R6-2
Added Pin To Net: NetName=3.3V Pin=R7-1
Added Pin To Net: NetName=JTDI Pin=R7-2
Added Pin To Net: NetName=3.3V Pin=R8-1
Added Pin To Net: NetName=JTMS Pin=R8-2
Added Pin To Net: NetName=NetCN2_17 Pin=R9-1
Added Pin To Net: NetName=GND Pin=R9-2
Added Pin To Net: NetName=NetCN2_19 Pin=R10-1
Added Pin To Net: NetName=GND Pin=R10-2
Added Pin To Net: NetName=3.3V Pin=R11-1
Added Pin To Net: NetName=JTDO Pin=R11-2
Added Pin To Net: NetName=USB_N Pin=R12-2
Added Pin To Net: NetName=3.3V Pin=R13-1
Added Pin To Net: NetName=NetD16_1 Pin=R13-2
Added Pin To Net: NetName=3.3V Pin=R14-1
Added Pin To Net: NetName=JTCK Pin=R15-1
Added Pin To Net: NetName=GND Pin=R15-2
Added Pin To Net: NetName=JRTCK Pin=R16-1
Added Pin To Net: NetName=GND Pin=R16-2
Added Pin To Net: NetName=GND Pin=R17-1
Added Pin To Net: NetName=NetD13_1 Pin=R55-1
Added Pin To Net: NetName=NetD13_2 Pin=R56-1
Added Pin To Net: NetName=NetR56_2 Pin=R56-2
Added Pin To Net: NetName=NetR57_2 Pin=R57-2
Added Pin To Net: NetName=3.3V Pin=R58-1
Added Pin To Net: NetName=NetR58_2 Pin=R58-2
Added Pin To Net: NetName=NetR58_2 Pin=R59-1
Added Pin To Net: NetName=NetC48_1 Pin=R59-2
Added Pin To Net: NetName=NetR60_1 Pin=R60-1
Added Pin To Net: NetName=NetQ9_1 Pin=R60-2
Added Pin To Net: NetName=NetR61_1 Pin=R61-1
Added Pin To Net: NetName=NetD14_1 Pin=R61-2
Added Pin To Net: NetName=NetR62_1 Pin=R62-1
Added Pin To Net: NetName=NetD15_1 Pin=R62-2
Added Pin To Net: NetName=POS_HI Pin=R201-1
Added Pin To Net: NetName=POS_LO Pin=R204-1
Added Pin To Net: NetName=3.3V Pin=SPK1-1
Added Pin To Net: NetName=JTDO Pin=U1-1
Added Pin To Net: NetName=JTDI Pin=U1-2
Added Pin To Net: NetName=JTMS Pin=U1-3
Added Pin To Net: NetName=NJTRST Pin=U1-4
Added Pin To Net: NetName=JTCK Pin=U1-5
Added Pin To Net: NetName=SENS3 Pin=U1-6
Added Pin To Net: NetName=SENS2 Pin=U1-7
Added Pin To Net: NetName=SENS1 Pin=U1-8
Added Pin To Net: NetName=SENS0 Pin=U1-9
Added Pin To Net: NetName=VDDA Pin=U1-10
Added Pin To Net: NetName=VSSA Pin=U1-11
Added Pin To Net: NetName=VREFP Pin=U1-12
Added Pin To Net: NetName=3.3V Pin=U1-13
Added Pin To Net: NetName=VREFN Pin=U1-15
Added Pin To Net: NetName=R\E\S\E\T\ Pin=U1-17
Added Pin To Net: NetName=3.3V Pin=U1-19
Added Pin To Net: NetName=SENS5 Pin=U1-20
Added Pin To Net: NetName=SENS4 Pin=U1-21
Added Pin To Net: NetName=SCL0 Pin=U1-24
Added Pin To Net: NetName=SDA0 Pin=U1-25
Added Pin To Net: NetName=U13 Pin=U1-26
Added Pin To Net: NetName=U12 Pin=U1-27
Added Pin To Net: NetName=3.3V Pin=U1-28
Added Pin To Net: NetName=GND Pin=U1-31
Added Pin To Net: NetName=NetD16_2 Pin=U1-32
Added Pin To Net: NetName=NetU1_33 Pin=U1-33
Added Pin To Net: NetName=NetU1_36 Pin=U1-36
Added Pin To Net: NetName=U1 Pin=U1-37
Added Pin To Net: NetName=U2 Pin=U1-38
Added Pin To Net: NetName=U3 Pin=U1-39
Added Pin To Net: NetName=ENC0_CH_A Pin=U1-40
Added Pin To Net: NetName=GND Pin=U1-41
Added Pin To Net: NetName=3.3V Pin=U1-42
Added Pin To Net: NetName=ENC1_CH_A Pin=U1-43
Added Pin To Net: NetName=ENC1_CH_B Pin=U1-44
Added Pin To Net: NetName=ENC0_CH_B Pin=U1-45
Added Pin To Net: NetName=NetU1_46 Pin=U1-46
Added Pin To Net: NetName=NetU1_47 Pin=U1-47
Added Pin To Net: NetName=U11 Pin=U1-50
Added Pin To Net: NetName=U10 Pin=U1-51
Added Pin To Net: NetName=U9 Pin=U1-52
Added Pin To Net: NetName=U8 Pin=U1-53
Added Pin To Net: NetName=3.3V Pin=U1-54
Added Pin To Net: NetName=GND Pin=U1-55
Added Pin To Net: NetName=MOTOR 1 DIR Pin=U1-56
Added Pin To Net: NetName=MOTOR 0 DIR Pin=U1-57
Added Pin To Net: NetName=NetU1_62 Pin=U1-62
Added Pin To Net: NetName=NetU1_63 Pin=U1-63
Added Pin To Net: NetName=USB_CONNECT Pin=U1-64
Added Pin To Net: NetName=U7 Pin=U1-65
Added Pin To Net: NetName=U6 Pin=U1-66
Added Pin To Net: NetName=U5 Pin=U1-67
Added Pin To Net: NetName=U4 Pin=U1-68
Added Pin To Net: NetName=NetR57_2 Pin=U1-69
Added Pin To Net: NetName=NetR56_2 Pin=U1-70
Added Pin To Net: NetName=3.3V Pin=U1-71
Added Pin To Net: NetName=GND Pin=U1-72
Added Pin To Net: NetName=MOTOR 1 PWM Pin=U1-74
Added Pin To Net: NetName=MOTOR 0 PWM Pin=U1-75
Added Pin To Net: NetName=MOSI1 Pin=U1-76
Added Pin To Net: NetName=MISO1 Pin=U1-77
Added Pin To Net: NetName=SCK1 Pin=U1-78
Added Pin To Net: NetName=SSEL1 Pin=U1-79
Added Pin To Net: NetName=U0 Pin=U1-80
Added Pin To Net: NetName=CHG_DETECTION Pin=U1-81
Added Pin To Net: NetName=GND Pin=U1-83
Added Pin To Net: NetName=3.3V Pin=U1-84
Added Pin To Net: NetName=NetR61_1 Pin=U1-86
Added Pin To Net: NetName=NetR62_1 Pin=U1-87
Added Pin To Net: NetName=LED7 Pin=U1-88
Added Pin To Net: NetName=LED6 Pin=U1-89
Added Pin To Net: NetName=LED5 Pin=U1-90
Added Pin To Net: NetName=LED4 Pin=U1-91
Added Pin To Net: NetName=LED3 Pin=U1-92
Added Pin To Net: NetName=LED2 Pin=U1-93
Added Pin To Net: NetName=LED1 Pin=U1-94
Added Pin To Net: NetName=LED0 Pin=U1-95
Added Pin To Net: NetName=3.3V Pin=U1-96
Added Pin To Net: NetName=GND Pin=U1-97
Added Pin To Net: NetName=SENS7 Pin=U1-98
Added Pin To Net: NetName=SENS6 Pin=U1-99
Added Pin To Net: NetName=JRTCK Pin=U1-100
Added Pin To Net: NetName=NetU1_46 Pin=U7-1
Added Pin To Net: NetName=NetU1_36 Pin=U7-2
Added Pin To Net: NetName=NetD9_1 Pin=U7-3
Added Pin To Net: NetName=NetU1_62 Pin=U7-4
Added Pin To Net: NetName=NetU1_36 Pin=U7-5
Added Pin To Net: NetName=NetD10_1 Pin=U7-6
Added Pin To Net: NetName=GND Pin=U7-7
Added Pin To Net: NetName=3.3V Pin=U7-14
Added Pin To Net: NetName=GND Pin=U19-1
Added Pin To Net: NetName=NetC48_1 Pin=U19-2
Added Pin To Net: NetName=NetR60_1 Pin=U19-3
Added Pin To Net: NetName=NetU1_33 Pin=U19-4
Added Pin To Net: NetName=NetC47_1 Pin=U19-5
Added Pin To Net: NetName=NetC48_1 Pin=U19-6
Added Pin To Net: NetName=NetR58_2 Pin=U19-7
Added Pin To Net: NetName=3.3V Pin=U19-8
Added Pin To Net: NetName=GND Pin=VT100-1
Added Pin To Net: NetName=NetR104_2 Pin=VT100-2
Added Pin To Net: NetName=CPWR Pin=VT100-3
Added Pin To Net: NetName=NetR101_2 Pin=VT100-4
Added Pin To Net: NetName=NetC101_1 Pin=VT100-5
Added Pin To Net: NetName=NetC101_1 Pin=VT100-6
Added Pin To Net: NetName=NetC101_1 Pin=VT100-7
Added Pin To Net: NetName=NetC101_1 Pin=VT100-8
Added Pin To Net: NetName=GND Pin=VT101-1
Added Pin To Net: NetName=NetR105_1 Pin=VT101-2
Added Pin To Net: NetName=CPWR Pin=VT101-3
Added Pin To Net: NetName=NetR102_1 Pin=VT101-4
Added Pin To Net: NetName=NetC101_2 Pin=VT101-5
Added Pin To Net: NetName=NetC101_2 Pin=VT101-6
Added Pin To Net: NetName=NetC101_2 Pin=VT101-7
Added Pin To Net: NetName=NetC101_2 Pin=VT101-8
Added Pin To Net: NetName=GND Pin=VT200-1
Added Pin To Net: NetName=NetR204_2 Pin=VT200-2
Added Pin To Net: NetName=CPWR Pin=VT200-3
Added Pin To Net: NetName=NetR201_2 Pin=VT200-4
Added Pin To Net: NetName=NetC201_1 Pin=VT200-5
Added Pin To Net: NetName=NetC201_1 Pin=VT200-6
Added Pin To Net: NetName=NetC201_1 Pin=VT200-7
Added Pin To Net: NetName=NetC201_1 Pin=VT200-8
Added Pin To Net: NetName=GND Pin=VT201-1
Added Pin To Net: NetName=NetR205_1 Pin=VT201-2
Added Pin To Net: NetName=CPWR Pin=VT201-3
Added Pin To Net: NetName=NetR202_1 Pin=VT201-4
Added Pin To Net: NetName=NetC201_2 Pin=VT201-5
Added Pin To Net: NetName=NetC201_2 Pin=VT201-6
Added Pin To Net: NetName=NetC201_2 Pin=VT201-7
Added Pin To Net: NetName=NetC201_2 Pin=VT201-8
Added Pin To Net: NetName=NetC10_1 Pin=C10-1
Added Pin To Net: NetName=NetC10_1 Pin=R14-2
Added Pin To Net: NetName=NetC10_1 Pin=R17-2
Added Pin To Net: NetName=NetC10_1 Pin=U2-10
Added Net: Name=NetC10_1
Added Pin To Net: NetName=NetC14_1 Pin=C14-1
Added Pin To Net: NetName=NetC14_1 Pin=OSC1-2
Added Pin To Net: NetName=NetC14_1 Pin=U1-18
Added Net: Name=NetC14_1
Added Pin To Net: NetName=NetC15_1 Pin=C15-1
Added Pin To Net: NetName=NetC15_1 Pin=OSC1-1
Added Pin To Net: NetName=NetC15_1 Pin=U1-16
Added Net: Name=NetC15_1
Added Pin To Net: NetName=NetC16_1 Pin=C16-1
Added Pin To Net: NetName=NetC16_1 Pin=OSC2-2
Added Pin To Net: NetName=NetC16_1 Pin=U1-22
Added Net: Name=NetC16_1
Added Pin To Net: NetName=NetC17_1 Pin=C17-1
Added Pin To Net: NetName=NetC17_1 Pin=OSC2-1
Added Pin To Net: NetName=NetC17_1 Pin=U1-23
Added Net: Name=NetC17_1
Added Pin To Net: NetName=NetD13_3 Pin=D13-3
Added Pin To Net: NetName=NetD13_3 Pin=R57-1
Added Net: Name=NetD13_3
Added Pin To Net: NetName=NetDD1_1 Pin=DD1-1
Added Pin To Net: NetName=NetDD1_1 Pin=U1-60
Added Net: Name=NetDD1_1
Added Pin To Net: NetName=NetDD1_2 Pin=DD1-2
Added Pin To Net: NetName=NetDD1_2 Pin=U1-34
Added Net: Name=NetDD1_2
Added Pin To Net: NetName=NetDD1_3 Pin=DD1-3
Added Pin To Net: NetName=NetDD1_3 Pin=U1-61
Added Net: Name=NetDD1_3
Added Pin To Net: NetName=NetDD1_4 Pin=DD1-4
Added Pin To Net: NetName=NetDD1_4 Pin=U1-35
Added Net: Name=NetDD1_4
Added Pin To Net: NetName=NetDD1_5 Pin=DD1-5
Added Pin To Net: NetName=NetDD1_5 Pin=U1-58
Added Net: Name=NetDD1_5
Added Pin To Net: NetName=NetDD1_6 Pin=DD1-6
Added Pin To Net: NetName=NetDD1_6 Pin=U1-59
Added Net: Name=NetDD1_6
Added Pin To Net: NetName=NetDD1_9 Pin=DD1-9
Added Pin To Net: NetName=NetDD1_9 Pin=DD1-11
Added Pin To Net: NetName=NetDD1_9 Pin=P7-2
Added Pin To Net: NetName=NetDD1_9 Pin=P7-2
Added Pin To Net: NetName=NetDD1_9 Pin=P7-2
Added Pin To Net: NetName=NetDD1_9 Pin=P7-2
Added Net: Name=NetDD1_9
Added Pin To Net: NetName=NetDD1_10 Pin=DD1-10
Added Pin To Net: NetName=NetDD1_10 Pin=P7-1
Added Net: Name=NetDD1_10
Added Pin To Net: NetName=NetDD2_2 Pin=DD2-2
Added Pin To Net: NetName=NetDD2_2 Pin=U1-49
Added Net: Name=NetDD2_2
Added Pin To Net: NetName=NetDD2_3 Pin=DD2-3
Added Pin To Net: NetName=NetDD2_3 Pin=U1-48
Added Net: Name=NetDD2_3
Added Pin To Net: NetName=NetP11_2 Pin=P11-2
Added Pin To Net: NetName=NetP11_2 Pin=U1-82
Added Net: Name=NetP11_2
Added Pin To Net: NetName=NetP11_3 Pin=P11-3
Added Pin To Net: NetName=NetP11_3 Pin=U1-85
Added Net: Name=NetP11_3
Added Pin To Net: NetName=NetQ9_3 Pin=Q9-3
Added Pin To Net: NetName=NetQ9_3 Pin=SPK1-2
Added Net: Name=NetQ9_3
Added Pin To Net: NetName=NetR2_1 Pin=R2-1
Added Pin To Net: NetName=NetR2_1 Pin=U1-29
Added Net: Name=NetR2_1
Added Pin To Net: NetName=NetR12_1 Pin=R12-1
Added Pin To Net: NetName=NetR12_1 Pin=U1-30
Added Net: Name=NetR12_1
Added Pin To Net: NetName=NetR55_2 Pin=R55-2
Added Pin To Net: NetName=NetR55_2 Pin=U1-73
Added Net: Name=NetR55_2
Added Class: Name=B1
Added Class: Name=B5
Added Class: Name=B6
Added Class: Name=B7
Added Member To Class: ClassName=B3 Member=Component DD100 SN74LVC02D
Added Member To Class: ClassName=B4 Member=Component DD200 (DD100A) SN74LVC02D
Added Member To Class: ClassName=B2 Member=Component U7 MC74LVX08D
Added Member To Class: ClassName=B3 Member=Component VT100 IRF7507
Added Member To Class: ClassName=B3 Member=Component VT101 IRF7507
Added Member To Class: ClassName=B4 Member=Component VT200 (VT100) IRF7507
Added Member To Class: ClassName=B4 Member=Component VT201 (VT101) IRF7507
