Reset Component Physical Designator: Old Designator=C20 New Designator=C100
Reset Component Physical Designator: Old Designator=C24 New Designator=C101
Reset Component Physical Designator: Old Designator=C25 New Designator=C102
Reset Component Physical Designator: Old Designator=C26 New Designator=C100
Reset Component Physical Designator: Old Designator=C27 New Designator=C101
Reset Component Physical Designator: Old Designator=C28 New Designator=C102
Reset Component Physical Designator: Old Designator=DD1 New Designator=DD100
Reset Component Physical Designator: Old Designator=DD1 New Designator=DD100
Reset Component Physical Designator: Old Designator=DD1 New Designator=DD100
Reset Component Physical Designator: Old Designator=DD1 New Designator=DD100
Reset Component Physical Designator: Old Designator=DD2 New Designator=DD100
Reset Component Physical Designator: Old Designator=DD2 New Designator=DD100
Reset Component Physical Designator: Old Designator=DD2 New Designator=DD100
Reset Component Physical Designator: Old Designator=DD2 New Designator=DD100
Reset Component Physical Designator: Old Designator=R16 New Designator=R100
Reset Component Physical Designator: Old Designator=R17 New Designator=R101
Reset Component Physical Designator: Old Designator=R18 New Designator=R102
Reset Component Physical Designator: Old Designator=R19 New Designator=R103
Reset Component Physical Designator: Old Designator=R20 New Designator=R104
Reset Component Physical Designator: Old Designator=R22 New Designator=R105
Reset Component Physical Designator: Old Designator=R31 New Designator=R100
Reset Component Physical Designator: Old Designator=R32 New Designator=R101
Reset Component Physical Designator: Old Designator=R53 New Designator=R102
Reset Component Physical Designator: Old Designator=R54 New Designator=R103
Reset Component Physical Designator: Old Designator=R55 New Designator=R104
Reset Component Physical Designator: Old Designator=R63 New Designator=R105
Reset Component Physical Designator: Old Designator=VT1 New Designator=VT100
Reset Component Physical Designator: Old Designator=VT2 New Designator=VT101
Reset Component Physical Designator: Old Designator=VT3 New Designator=VT100
Reset Component Physical Designator: Old Designator=VT4 New Designator=VT101
