Change Component DesignItemId : Designator=P10 Old DesignItemId=Header 8X2 New DesignItemId=Header 6X2
Change Component Footprint: Designator=P10 Old Footprint=HDR2X8 New Footprint=HDR2X6
Change Component Comment : Designator=P10 Old Comment=Header 8X2 New Comment=Header 6X2
Added Component: Designator=R31(SMDR0603[1608])
Added Component: Designator=R32(SMDR0603[1608])
Added Component: Designator=R53(SMDR0603[1608])
Added Component: Designator=R54(SMDR0603[1608])
Added Pin To Net: NetName=3.3V Pin=R31-1
Added Pin To Net: NetName=3.3V Pin=R32-1
Added Pin To Net: NetName=3.3V Pin=R53-1
Added Pin To Net: NetName=3.3V Pin=R54-1
Added Pin To Net: NetName=3.3V Pin=U3-14
Added Pin To Net: NetName=ADDR0 Pin=R54-2
Added Pin To Net: NetName=ADDR0 Pin=U1-51
Added Net: Name=ADDR0
Added Pin To Net: NetName=ADDR1 Pin=R53-2
Added Pin To Net: NetName=ADDR1 Pin=U1-50
Added Net: Name=ADDR1
Added Pin To Net: NetName=ADDR2 Pin=R32-2
Added Pin To Net: NetName=ADDR2 Pin=U1-27
Added Net: Name=ADDR2
Added Pin To Net: NetName=ADDR3 Pin=R31-2
Added Pin To Net: NetName=ADDR3 Pin=U1-26
Added Net: Name=ADDR3
Added Member To Class: ClassName=B1 Member=Component R31 10k
Added Member To Class: ClassName=B1 Member=Component R32 10k
Added Member To Class: ClassName=B1 Member=Component R53 10k
Added Member To Class: ClassName=B1 Member=Component R54 10k
