Removed Pin From Net: NetName=NetD9_1 Pin=D10-1
Removed Pin From Net: NetName=NetD12_2 Pin=R50-1
Removed Pin From Net: NetName=NetD9_2 Pin=R51-1
Removed Pin From Net: NetName=NetU1_46 Pin=U7-1
Removed Pin From Net: NetName=NetU1_36 Pin=U7-2
Removed Pin From Net: NetName=NetU1_62 Pin=U7-4
Removed Pin From Net: NetName=NetU1_36 Pin=U7-5
Removed Pin From Net: NetName=NetD9_1 Pin=U7-6
Removed Pin From Net: NetName=GND Pin=U7-7
Removed Pin From Net: NetName=3.3V Pin=U7-14
Removed Member From Class: ClassName=B2 Member=U7
Change Component Comment : Designator=R41 Old Comment=47k New Comment=4.7k
Change Component Comment : Designator=R42 Old Comment=47k New Comment=4.7k
Change Component Comment : Designator=R43 Old Comment=47k New Comment=4.7k
Change Component Comment : Designator=R44 Old Comment=47k New Comment=4.7k
Change Component Comment : Designator=R45 Old Comment=47k New Comment=4.7k
Change Component Comment : Designator=R46 Old Comment=47k New Comment=4.7k
Change Component Comment : Designator=R47 Old Comment=47k New Comment=4.7k
Change Component Comment : Designator=R48 Old Comment=47k New Comment=4.7k
Added Component: Designator=SW1(DTSMW-6x)
Added Component: Designator=U3(D014_N)
Added Pin To Net: NetName=NetD9_1 Pin=D11-1
Added Pin To Net: NetName=NetD9_2 Pin=R50-1
Added Pin To Net: NetName=NetD12_2 Pin=R51-1
Added Pin To Net: NetName=3.3V Pin=SW1-1
Added Pin To Net: NetName=3.3V Pin=SW1-1
Added Pin To Net: NetName=U0 Pin=SW1-2
Added Pin To Net: NetName=U0 Pin=SW1-2
Added Pin To Net: NetName=NetD9_1 Pin=U3-1
Added Pin To Net: NetName=NetU1_46 Pin=U3-2
Added Pin To Net: NetName=NetU1_36 Pin=U3-3
Added Pin To Net: NetName=NetU1_62 Pin=U3-5
Added Pin To Net: NetName=NetU1_36 Pin=U3-6
Added Pin To Net: NetName=GND Pin=U3-7
Added Pin To Net: NetName=NetD10_1 Pin=D10-1
Added Pin To Net: NetName=NetD10_1 Pin=D12-1
Added Pin To Net: NetName=NetD10_1 Pin=U3-4
Added Net: Name=NetD10_1
Added Pin To Net: NetName=NetR20_1 Pin=U3-8
Added Pin To Net: NetName=NetR20_1 Pin=U3-9
Added Net: Name=NetR20_1
Added Pin To Net: NetName=NetR22_1 Pin=U3-11
Added Pin To Net: NetName=NetR22_1 Pin=U3-12
Added Net: Name=NetR22_1
Added Pin To Net: NetName=VCC Pin=U3-14
Added Net: Name=VCC
Added Member To Class: ClassName=B1 Member=Component SW1 DTSMW-6x
Added Member To Class: ClassName=B2 Member=Component U3 SN74LVC02D
Added Room: Name=B0
Added Room: Name=B1
Added Room: Name=B2
Added Room: Name=B3
Added Room: Name=B4
Added Room: Name=B5
Added Room: Name=B6
Added Room: Name=B7
Added Room: Name=mainboard
