----------------------
 Fri May 20 00:51:09 2011
 
Coverage time: 32.798 sec
Initial target qty: 247
Covered target qty: 223
Complete: 0.90%
Total travel path: 164.600
Avg length to target: 0.738
----------------------
 Fri May 20 00:55:57 2011
 
Coverage time: 34.767 sec
Initial target qty: 247
Covered target qty: 228
Complete: 0.92%
Total travel path: 176.275
Avg length to target: 0.773
----------------------
 Fri May 20 00:57:43 2011
 
Coverage time: 37.914 sec
Initial target qty: 247
Covered target qty: 237
Complete: 0.96%
Total travel path: 183.675
Avg length to target: 0.775
----------------------
 Fri May 20 00:59:47 2011
 
Coverage time: 26.564 sec
Initial target qty: 247
Covered target qty: 177
Complete: 0.72%
Total travel path: 97.540
Avg length to target: 0.551
----------------------
 Fri May 20 01:01:47 2011
 
Coverage time: 26.018 sec
Initial target qty: 247
Covered target qty: 148
Complete: 0.60%
Total travel path: 77.653
Avg length to target: 0.525
----------------------
 Fri May 20 01:02:33 2011
 
Coverage time: 21.446 sec
Initial target qty: 247
Covered target qty: 122
Complete: 0.49%
Total travel path: 60.685
Avg length to target: 0.497
----------------------
 Fri May 20 01:03:17 2011
 
Coverage time: 21.831 sec
Initial target qty: 247
Covered target qty: 129
Complete: 0.52%
Total travel path: 60.624
Avg length to target: 0.470
