----------------------
 Thu May 19 21:34:13 2011
 
Coverage time: 63.056 sec
Initial target qty: 247
Covered target qty: 233
Complete: 0.94%
Total travel path: 293.437
Avg length to target: 1.259
----------------------
 Thu May 19 21:35:46 2011
 
Coverage time: 64.023 sec
Initial target qty: 247
Covered target qty: 232
Complete: 0.94%
Total travel path: 291.692
Avg length to target: 1.257
----------------------
 Thu May 19 21:37:23 2011
 
Coverage time: 68.103 sec
Initial target qty: 247
Covered target qty: 232
Complete: 0.94%
Total travel path: 290.234
Avg length to target: 1.251
----------------------
 Thu May 19 21:39:13 2011
 
Coverage time: 62.450 sec
Initial target qty: 247
Covered target qty: 194
Complete: 0.79%
Total travel path: 224.969
Avg length to target: 1.160
----------------------
 Thu May 19 21:40:00 2011
 
Coverage time: 13.308 sec
Initial target qty: 247
Covered target qty: 36
Complete: 0.15%
Total travel path: 31.082
Avg length to target: 0.863
----------------------
 Thu May 19 21:41:38 2011
 
Coverage time: 12.380 sec
Initial target qty: 247
Covered target qty: 35
Complete: 0.14%
Total travel path: 29.117
Avg length to target: 0.832
----------------------
 Thu May 19 21:42:28 2011
 
Coverage time: 12.820 sec
Initial target qty: 247
Covered target qty: 34
Complete: 0.14%
Total travel path: 28.682
Avg length to target: 0.844
