----------------------
 Fri May 20 00:41:00 2011
 
Coverage time: 33.951 sec
Initial target qty: 247
Covered target qty: 203
Complete: 0.82%
Total travel path: 138.520
Avg length to target: 0.682
----------------------
 Fri May 20 00:41:45 2011
 
Coverage time: 22.662 sec
Initial target qty: 247
Covered target qty: 109
Complete: 0.44%
Total travel path: 65.664
Avg length to target: 0.602
----------------------
 Fri May 20 00:43:02 2011
 
Coverage time: 44.154 sec
Initial target qty: 247
Covered target qty: 233
Complete: 0.94%
Total travel path: 223.742
Avg length to target: 0.960
----------------------
 Fri May 20 00:45:53 2011
 
Coverage time: 31.836 sec
Initial target qty: 247
Covered target qty: 166
Complete: 0.67%
Total travel path: 99.617
Avg length to target: 0.600
----------------------
 Fri May 20 00:46:27 2011
 
Coverage time: 5.509 sec
Initial target qty: 247
Covered target qty: 30
Complete: 0.12%
Total travel path: 13.147
Avg length to target: 0.438
----------------------
 Fri May 20 00:46:57 2011
 
Coverage time: 5.452 sec
Initial target qty: 247
Covered target qty: 33
Complete: 0.13%
Total travel path: 12.127
Avg length to target: 0.367
----------------------
 Fri May 20 00:48:07 2011
 
Coverage time: 5.395 sec
Initial target qty: 247
Covered target qty: 30
Complete: 0.12%
Total travel path: 11.704
Avg length to target: 0.390
