----------------------
 Thu May 19 20:30:48 2011
 
Coverage time: 42.581 sec
Initial target qty: 247
Covered target qty: 146
Complete: 0.59%
Total travel path: 144.324
Avg length to target: 0.989
----------------------
 Thu May 19 20:32:06 2011
 
Coverage time: 45.829 sec
Initial target qty: 247
Covered target qty: 146
Complete: 0.59%
Total travel path: 140.076
Avg length to target: 0.959
----------------------
 Thu May 19 20:45:51 2011
 
Coverage time: 41.063 sec
Initial target qty: 247
Covered target qty: 147
Complete: 0.60%
Total travel path: 140.372
Avg length to target: 0.955
----------------------
 Thu May 19 20:47:08 2011
 
Coverage time: 57.110 sec
Initial target qty: 247
Covered target qty: 145
Complete: 0.59%
Total travel path: 138.293
Avg length to target: 0.954
----------------------
 Thu May 19 21:10:41 2011
 
Coverage time: 43.603 sec
Initial target qty: 247
Covered target qty: 178
Complete: 0.72%
Total travel path: 174.549
Avg length to target: 0.981
----------------------
 Thu May 19 21:11:54 2011
 
Coverage time: 45.543 sec
Initial target qty: 247
Covered target qty: 178
Complete: 0.72%
Total travel path: 174.312
Avg length to target: 0.979
----------------------
 Thu May 19 21:13:11 2011
 
Coverage time: 44.462 sec
Initial target qty: 247
Covered target qty: 172
Complete: 0.70%
Total travel path: 164.344
Avg length to target: 0.955
----------------------
 Thu May 19 21:14:29 2011
 
Coverage time: 47.855 sec
Initial target qty: 247
Covered target qty: 171
Complete: 0.69%
Total travel path: 163.555
Avg length to target: 0.956
----------------------
 Thu May 19 21:15:53 2011
 
Coverage time: 43.908 sec
Initial target qty: 247
Covered target qty: 142
Complete: 0.57%
Total travel path: 134.373
Avg length to target: 0.946
----------------------
 Thu May 19 21:16:38 2011
 
Coverage time: 11.083 sec
Initial target qty: 247
Covered target qty: 30
Complete: 0.12%
Total travel path: 25.610
Avg length to target: 0.854
----------------------
 Thu May 19 21:17:53 2011
 
Coverage time: 8.357 sec
Initial target qty: 247
Covered target qty: 24
Complete: 0.10%
Total travel path: 17.652
Avg length to target: 0.736
