include "pioneer.inc"
include "map.inc"
include "sick.inc"
include "swarm.inc"
include "objects.inc"
include "charger.inc"

# time to pause (in GUI mode) or quit (in headless mode (-g)) the simulation
quit_time 3600 # 1 hour of simulated time
paused 0
speedup 1
show_clock 1
resolution 0.01
interval_sim 100

# configure the GUI window
window
(
  #Normal size
  #size [ 450.000 480.000 ] # in pixels
  #scale 22.000   # pixels per meter

  #Tiny size
  size [ 200.000 250.000 ] # in pixels
  scale 10.000   # pixels per meter

  center [ 0.000  0.000 ]
  rotate [ 0  0 ]

  # GUI options
  show_data 1       # 1=on 0=off
  show_flags 0
  show_blocks 1
  show_clock 1
  show_footprints 0
  show_grid 1
  show_trailarrows 0
  show_trailrise 0
  show_trailfast 0
  show_occupancy 0
  show_tree 0
  pcam_on 0
  screenshots 0
)

# load an environment bitmap
floorplan
(
  name "polygon"
  size [20 15.0 1]
  pose [0.0 0.0 0 0]
  bitmap "bitmaps/polygon5_wo_obst.png"
  #bitmap "bitmaps/polygon6_wo_obst.png"
  #bitmap "bitmaps/polygon7_wo_obst.png"
  #bitmap "bitmaps/polygon8_wo_obst.png"
)


swarm-robot
(
  # can refer to the robot by this name
  name "swarm0"
  color_rgba [ 0.2 0.2 0.6 1.0 ]
  pose [ -9 -0 0 90 ]
  fiducial_return 30
  fiducial_key 1
)

swarm-robot
(
  name "swarm1"
  color "green"
  pose [ -7.6 -0 0 90 ]
  fiducial_return 31
  fiducial_key 1
)

swarm-robot
(
  name "swarm2"
  color "blue"
  pose [ -6.2 -6 0 90 ]
  fiducial_return 32
  fiducial_key 1
)

swarm-robot
(
  name "swarm3"
  color "gray"
  pose [ -4.8 -6 0 90 ]
  fiducial_return 33
  fiducial_key 1
)

swarm-robot
(
  name "swarm4"
  color "orange"
  pose [ -3.4 -6 0 90 ]
  fiducial_return 34
  fiducial_key 1
)

swarm-robot
(
  name "swarm5"
  color "maroone"
  pose [ -2.0 -6 0 90 ]
  fiducial_return 35
  fiducial_key 1
)
swarm-robot
(
  name "swarm6"
  color "maroone"
  pose [ -0.6 -9 0 90 ]
  fiducial_return 36
  fiducial_key 1
)

swarm-robot
(
  name "swarm7"
  color "maroone"
  pose [ 0.8 -9 0 90 ]
  fiducial_return 37
  fiducial_key 1
)

swarm-robot
(
  name "swarm8"
  color "maroone"
  pose [ 2.2 -9 0 90 ]
  fiducial_return 38
  fiducial_key 1
)

swarm-robot
(
  name "swarm9"
  color "maroone"
  pose [ 3.6 -9 0 90 ]
  fiducial_return 39
  fiducial_key 1
)
work_point
(
  name "wp0"
  pose [ -5 0.0 0 0 ]
  fiducial_return 1
  fiducial_key 0
)
work_point
(
  name "wp1"
  pose [ 0.0 4 0 0 ]
  fiducial_return 2
  fiducial_key 0
)
work_point
(
  name "wp2"
  pose [ 5 0.0 0 0 ]
  fiducial_return 3
  fiducial_key 0
)
work_point
(
  name "wp3"
  pose [ 0 -4 0 0 ]
  fiducial_return 4
  fiducial_key 0
)

#
#charger
#(
#	name "charger0"
#	pose [ -9.6 3.5 0 -90]
#	fiducial_return 10
#)
#
#charger
#(
#	name "charger1"
#	pose [ -7 7.1 0 180]
#	fiducial_return 11
#)
#
#charger
#(
#	name "charger2"
#	pose [ 9.6 3.5 0 90]
#	fiducial_return 12
#)
#
#charger
#(
#	name "charger3"
#	pose [ 9.6 -3.5 0 90]
#	fiducial_return 13
#)
#
#charger
#(
#	name "charger4"
#	pose [ 7 -7.1 0 0]
#	fiducial_return 14
#)
#
#charger
#(
#	name "charger5"
#	pose [ -9.6 -3.5 0 -90]
#	fiducial_return 15
#)
