Change Component Physical Designator: Old Designator=DD4 New Designator=DD1
Change Component Physical Designator: Old Designator=DD100 New Designator=DD200
Change Component Physical Designator: Old Designator=DD100 New Designator=DD200
Change Component Physical Designator: Old Designator=DD100 New Designator=DD200
Change Component Physical Designator: Old Designator=DD100 New Designator=DD200
Change Component Physical Designator: Old Designator=R103 New Designator=R203
Change Component Physical Designator: Old Designator=TP1 New Designator=TP4
Change Component Physical Designator: Old Designator=TP2 New Designator=TP3
Change Component Physical Designator: Old Designator=TP3 New Designator=TP1
Change Component Physical Designator: Old Designator=TP4 New Designator=TP2
Change Component Physical Designator: Old Designator=VT17 New Designator=VT1
