M48
;Layer_Color=9474304
;FILE_FORMAT=4:3
METRIC,TZ
;TYPE=PLATED
T1F00S00C0.300
T2F00S00C0.400
T3F00S00C0.500
T4F00S00C0.600
T5F00S00C0.700
T6F00S00C0.762
T7F00S00C0.800
T8F00S00C0.900
T9F00S00C1.500
T10F00S00C1.700
T11F00S00C3.300
%
T01
X54475Y60875
Y61875
Y62875
T02
X59975Y23275
X61975
Y25275
Y27275
X59975
X63975
Y23275
X78000Y35000
X80000
X98000
X100000
X99325Y19425
X101325
X97325
X135000Y56000
X137000
X139000
Y58000
X137000
X135000
Y75500
X137000
X139000
Y77500
X137000
X135000
X122525Y76025
Y74025
Y72025
X112200Y69775
X112125Y63350
X110125
X114125
X115375Y56850
X93700Y58950
X91575Y62775
X91575Y65275
X87725Y59850
X79550Y53800
X79875Y67300
X80150Y69725
X104475Y79225
X107575Y77700
X109450
X75875Y74000
Y72000
Y70000
X70850Y60775
Y58775
X68850
X66850
Y56775
X68850
X70850
X58600Y57325
X67400Y42375
X69400
X53775Y80925
X51775
X49775
Y82925
X51775
Y84925
X49775
X53775
Y82925
X68300Y99125
X70300
Y101125
X68300
Y103125
X70300
X72300
Y101125
Y99125
X104325Y83050
X115150Y85900
X117575Y89250
X130000Y94000
X132000
X134000
Y96000
Y98000
X132000
Y96000
X130000
X123000Y107000
Y109000
Y111000
X135000Y79500
X137000
X139000
T03
X81300Y12600
X94875Y20825
X106550Y33175
X110500Y30625
X109950Y38350
X122350Y35600
X122775Y42750
X123131Y44102
X123531Y45402
X125375Y45425
X127725Y44250
X129775Y44300
X138700Y41000
X135250Y53825
X122950Y59375
X121500Y61300
X121331Y63353
X122681Y63603
X117450Y65525
X116600Y66525
X117875Y67575
X117456Y68853
X115000Y62275
X113650Y61275
X113625Y59175
X111731Y58094
X110750Y58975
X110594Y56894
X109356Y56925
X108075
X106800Y56875
X109325Y54200
X112025Y54275
Y51400
X115375Y52150
X116750Y52125
X114825Y55375
X118650Y58475
X109975Y61450
X102875Y59200
X99429Y59250
X98175
X96650Y57725
X95380Y57728
X94431Y56825
X100000Y57800
X99429Y66450
X98175
X99350Y72900
X98950Y75125
X98840Y77760
X94555Y77079
X105000Y72725
X109660Y73260
X105525Y52725
X105900Y51375
X107025Y50350
X107425Y44225
X107625Y41925
X102025Y43550
X103450Y45850
X98475Y48375
X95075Y50250
X93175Y48400
X97750Y43550
X88950Y41250
X85000Y43700
X83125Y44025
X84425Y47475
X90725Y60475
X75300Y61225
X74504Y62578
X71600Y64300
X70800Y65700
X72425Y57775
X73700Y57700
X68300Y50425
X68275Y48550
X61675Y46075
X56000Y47475
X55150Y48325
X53925Y46375
X52325Y51150
X51475Y52000
X49300Y49375
X45475Y54175
X57500Y41350
X79150Y43475
X76725Y76425
X77525Y77425
X77600Y78950
X71300Y75500
X63200Y74200
X61925Y70575
X54850Y77900
X33600Y56100
X39400Y97100
X42875Y84700
X75825Y85775
X78625Y80100
X67575Y112025
X80675Y110975
X81975Y112775
X80200Y113625
X84654Y114406
X84475Y107475
X82400Y107500
X86825Y107400
X93250Y109250
X94700Y110500
X94000Y105250
X91100Y98000
X92580Y93080
X93850Y93150
X93105Y91904
X91550Y89825
X91325Y83925
X91375Y82425
X91275Y79900
X87425Y79875
X81779Y79879
X80725Y82200
X79725Y81250
X81700Y83200
X82625Y84100
X82600Y88900
X87425Y86475
X99050Y82900
X100700Y83250
X102775Y82850
X102375Y81375
X106340Y83235
X109815Y81760
X109750Y80125
X111380Y87554
X103075Y93475
X103155Y94980
X103150Y96275
X102975Y97725
X100830Y97380
X100675Y94584
X100300Y93175
X99380Y93980
X98150Y98125
X103200Y108800
X105600Y111150
X117500Y118200
X121100Y90925
X121500Y87075
X129850Y87575
X144500Y81800
X96200Y125500
X75900Y124400
T04
X90720Y74140
Y76140
X72783Y78394
X71369Y79808
X69955Y81223
X68541Y82637
X67126Y84051
X65712Y85465
X64298Y86879
X62884Y88294
X61469Y89708
X60055Y91122
X77026Y105264
X78440Y103850
X75612Y106678
X79854Y102436
X81268Y101022
X82683Y99607
X84097Y98193
X85511Y96779
X86925Y95365
X88340Y93951
T05
X87725Y14725
X90265
X138583Y47047
X139555Y49394
X38378Y49405
X39350Y47058
X38492Y88544
X39464Y90891
X67180Y118411
X110945Y118769
X138464Y90834
X139436Y88487
X108599Y119741
X90250Y123050
X87710
X69526Y119383
T06
X133500Y67000
X140500
T07
X60000Y25300
X64000
X67851Y21314
X70197Y20342
X87755Y16925
X90295
X91550Y26625
X89010
X86470
X107724Y20382
X110071Y21354
X136728Y47794
X137700Y50141
X40289Y50249
X41261Y47902
X40351Y87835
X41323Y90182
X67898Y116598
X70245Y117570
X86525Y111500
X89065
X91605
X107795Y117747
X110141Y116775
X136624Y90050
X137596Y87704
X100391Y119941
X97900Y120436
X90220Y121100
X87680
X80075Y120480
X77584Y119985
T08
X77800Y26600
X80340
X97550Y26600
X100090
X110500Y36250
X113040
X116250Y36570
Y39110
X118790
Y36570
Y41650
Y44190
Y46730
Y49270
X116250
Y46730
Y44190
Y41650
X90750Y48830
Y51370
Y53910
Y56450
X86260Y56380
Y53840
Y51300
Y48760
X86879Y63979
X88675Y65775
X90471Y67571
X92267Y69367
X66750Y67000
Y64460
X64250Y77250
X61710
X92420Y96000
X94960
X97500
X100040
X100330Y104140
X97790
X95250
X92710
X90170
Y106680
X92710
X95250
X97790
X100330
X102870
Y104140
X105410
Y106680
X107950
Y104140
X110490
Y106680
X113030
Y104140
X117460Y104210
Y106750
Y101670
X113540Y91275
X111000
X108460
X105920
X120000Y101670
Y104210
Y106750
T09
X59580Y108380
T10
X56044Y108380
X59580Y111916
Y104844
X63116Y108380
T11
X52000Y39000
X126000
X52000Y99000
X126000
M30
