----------------------
 Fri May 20 00:15:28 2011
 
Coverage time: 30.811 sec
Initial target qty: 247
Covered target qty: 241
Complete: 0.98%
Total travel path: 165.977
Avg length to target: 0.689
----------------------
 Fri May 20 00:19:58 2011
 
Coverage time: 33.199 sec
Initial target qty: 247
Covered target qty: 241
Complete: 0.98%
Total travel path: 162.259
Avg length to target: 0.673
----------------------
 Fri May 20 00:26:19 2011
 
Coverage time: 38.865 sec
Initial target qty: 247
Covered target qty: 246
Complete: 1.00%
Total travel path: 195.664
Avg length to target: 0.795
----------------------
 Fri May 20 00:27:12 2011
 
Coverage time: 31.950 sec
Initial target qty: 247
Covered target qty: 194
Complete: 0.79%
Total travel path: 129.067
Avg length to target: 0.665
----------------------
 Fri May 20 00:32:27 2011
 
Coverage time: 17.383 sec
Initial target qty: 247
Covered target qty: 100
Complete: 0.40%
Total travel path: 56.959
Avg length to target: 0.570
----------------------
 Fri May 20 00:38:06 2011
 
Coverage time: 18.919 sec
Initial target qty: 247
Covered target qty: 113
Complete: 0.46%
Total travel path: 68.728
Avg length to target: 0.608
----------------------
 Fri May 20 00:38:52 2011
 
Coverage time: 22.832 sec
Initial target qty: 247
Covered target qty: 114
Complete: 0.46%
Total travel path: 66.389
Avg length to target: 0.582
