76.760 ; 107 ; 107 ; 1.00 ; 110.916 ; 1.037 
32.266 ; 117 ; 109 ; 0.93 ; 82.869 ; 0.760 
32.717 ; 96 ; 84 ; 0.88 ; 72.035 ; 0.858 
69.319 ; 110 ; 107 ; 0.97 ; 112.706 ; 1.053 
61.121 ; 107 ; 107 ; 1.00 ; 98.369 ; 0.919 
40.257 ; 96 ; 96 ; 1.00 ; 89.192 ; 0.929 
9.445 ; 92 ; 28 ; 0.30 ; 27.858 ; 0.995 
40.701 ; 120 ; 116 ; 0.97 ; 92.985 ; 0.802 
39.967 ; 108 ; 107 ; 0.99 ; 91.439 ; 0.855 
63.988 ; 113 ; 113 ; 1.00 ; 0.000 ; 0.000 
39.658 ; 112 ; 112 ; 1.00 ; 0.000 ; 0.000 
46.855 ; 99 ; 99 ; 1.00 ; 0.000 ; 0.000 
46.800 ; 105 ; 105 ; 1.00 ; 80.299 ; 0.765 
45.006 ; 101 ; 101 ; 1.00 ; 107.602 ; 1.065 
53.280 ; 102 ; 102 ; 1.00 ; 113.927 ; 1.117 
55.503 ; 107 ; 107 ; 1.00 ; 129.715 ; 1.212 
38.996 ; 101 ; 101 ; 1.00 ; 92.906 ; 0.920 
57.409 ; 100 ; 100 ; 1.00 ; 103.740 ; 1.037 
93.371 ; 120 ; 120 ; 1.00 ; 104.540 ; 0.871 
40.923 ; 106 ; 106 ; 1.00 ; 98.424 ; 0.929 
13.683 ; 119 ; 47 ; 0.39 ; 27.851 ; 0.593 
15.970 ; 112 ; 48 ; 0.43 ; 27.057 ; 0.564 
9.673 ; 99 ; 45 ; 0.45 ; 27.275 ; 0.606 
9.625 ; 0 ; -221 ; -inf ; 27.155 ; -0.123 
9.236 ; 0 ; -221 ; -inf ; 27.048 ; -0.122 
0.729 ; 0 ; -221 ; -inf ; 0.000 ; -0.000 
0.711 ; 0 ; -221 ; -inf ; 0.000 ; -0.000 
54.802 ; 0 ; 0 ; -nan ; 27.341 ; inf 
205.389 ; 0 ; 0 ; -nan ; 32.296 ; inf 
10.711 ; 0 ; 0 ; -nan ; 26.757 ; inf 
0.368 ; 0 ; 0 ; -nan ; 0.000 ; -nan 
14.759 ; 0 ; 0 ; -nan ; 36.765 ; inf 
